{
  "Parameters": {
    "StageName": "staging",
    "EndpointInstanceCount": "1",
    "EndpointInstanceType": "ml.m5.large",
    "SamplingPercentage": "100",
    "EnableDataCapture": "true",
    "EndpointName": "encoder-staging-artak"
  }
}
